{
  "ocioList": [
    {
      "id": 1,
      "name": "Cinema",
      "image": "https://www.ccatlantico.com/wp-content/uploads/2016/02/10953.jpg"
    },
    {
      "id": 2,
      "name": "Bowling",
      "image": "https://www.logolynx.com/images/logolynx/da/dac97f16ef8712677b1541791978a857.png"
    },
    {
      "id": 3,
      "name": "Games Center",
      "image": "https://biz.prlog.org/GamePazzo/logo.jpg"
    },
    {
      "id": 4,
      "name": "Fit & Wellness",
      "image": "http://www.udmercy.edu/life/health/images/Wellness_logo.jpg"
    }
  ],
  "ocioDetail": [
    {
      "id": 1,
      "name": "Cinema",
      "image": "https://www.ccatlantico.com/wp-content/uploads/2016/02/10953.jpg",
      "gallery": [
        "https://s.libertaddigital.com/2016/07/14/1920/1080/fit/cinescinesa.jpg",
        "https://img.grouponcdn.com/deal/igkC1qYUmsqjQoCo44Mi/hk-700x420/v1/c700x420.jpg",
        "https://www.gentalia.eu/wp-content/uploads/2019/09/at2.jpg",
        "https://eldemocrata.com/wp-content/uploads/2020/06/Cines-15062020.jpeg"
      ],
      "description": "Descubre nuestras nuevas salas de cine, con sonido 4D para una sensación nunca vista"
    },
    {
      "id": 2,
      "name": "Bowling",
      "image": "https://www.logolynx.com/images/logolynx/da/dac97f16ef8712677b1541791978a857.png",
      "gallery": [
        "https://pixfeeds.com/images/sports/bowling/1280-472577064-bowling-lane-black-light.jpg",
        "https://tse3.mm.bing.net/th?id=OIP.HZIkEJ1q-FTeBGWrAfUFtgHaE8&pid=Api&P=0&w=262&h=176",
        "https://www.dayoutwiththekids.co.uk/media/7529/35470-world-of-bowling-edinburgh-01.jpg?anchor=center&mode=crop&quality=75&width=1200",
        "https://www.zonebowling.com/media/2319/clayton-venue-photoshoot-69.jpg"
      ],
      "description": "Con 20 pistas y una zona recreativa, no faltará de nada para poder disfrutar un día en familia"
    },
    {
      "id": 3,
      "name": "Games Center",
      "image": "https://biz.prlog.org/GamePazzo/logo.jpg",
      "gallery": [
        "https://technofaq.org/wp-content/uploads/2018/06/gaming-center.jpg",
        "https://news.gcu.edu/wp-content/uploads/2018/11/Esports-Magazine-100418-005_SLIDER.jpg",
        "https://i5.walmartimages.com/dfw/4ff9c6c9-378f/k2-_8b391bc7-4e91-4cb7-a6fd-d0f1b091fa19.v1.jpg",
        "https://cdn.computerhoy.com/sites/navi.axelspringer.es/public/media/image/2015/05/101763-primer-bar-restaurante-gamers-gg-wp-bar-restaurant-quiere-abrir-madrid.jpg"
      ],
      "description": "Última tecnología en nuestra sala GAMER con ordenadores, ps4 y monitores de última generación"
    },
    {
      "id": 4,
      "name": "Fit & Wellnes",
      "image": "http://www.udmercy.edu/life/health/images/Wellness_logo.jpg",
      "gallery": [
        "https://www.promontoryclub.com/wp-content/uploads/2017/12/Fitness-and-wellness-GI-02.jpg",
        "https://www.gymstarters.com/wp-content/uploads/thumbnail_IMG_1104.jpg",
        "https://i.ytimg.com/vi/xpaVn2HOR7c/maxresdefault.jpg",
        "https://www.installation-international.com/wp-content/uploads/2019/01/martin-audio-movin-london-gym-1.jpg"
      ],
      "description": "No podía faltar... ponte en forma y disfruta con nuestra nueva maquinaria, tanto si eres novato como si ya tienes experiencia"
    }
  ],
  "restauracionList": [
    {
      "id": 1,
      "name": "Foster Hollywood",
      "image": "https://www.emprendedores.es/wp-content/uploads/2015/11/fosterhollywood-logo-1542103518-1024x512.jpg"
    },
    {
      "id": 2,
      "name": "Buffalo",
      "image": "https://media-cdn.tripadvisor.com/media/photo-s/06/3e/29/c3/buffalo-wings-ribs.jpg"
    },
    {
      "id": 3,
      "name": "Tgb",
      "image": "https://torrecardenas.com/uploads/tiendas/small/4453_tgb.jpg"
    },
    {
      "id": 4,
      "name": "Burguer King",
      "image": "https://logos-marcas.com/wp-content/uploads/2020/08/Burger-King-Logotipo-1999-presente.jpg"
    },
    {
      "id": 5,
      "name": "McDonalds",
      "image": "https://www.estrategiaynegocios.net/csp/mediapool/sites/dt.common.streams.StreamServer.cls?STREAMOID=WEb55WzHuIh9DfpJ4G9axs$daE2N3K4ZzOUsqbU5sYsNoPlrx48SJYNvnAnRbF2Q6FB40xiOfUoExWL3M40tfzssyZqpeG_J0TFo7ZhRaDiHC9oxmioMlYVJD0A$3RbIiibgT65kY_CSDiCiUzvHvODrHApbd6ry6YGl5GGOZrs-&CONTENTTYPE=image/jpeg"
    },
    {
      "id": 6,
      "name": "Taco Bell",
      "image": "https://brandemia.org/sites/default/files/inline/images/taco_bell_logo.jpg"
    },
    {
      "id": 7,
      "name": "Tagliatella",
      "image": "https://hosteleo.com/blog/wp-content/uploads/2020/03/la_tagliatella_logoclaims_1554396651-810x353.jpg"
    },
    {
      "id": 8,
      "name": "KFC",
      "image": "https://1000marcas.net/wp-content/uploads/2020/01/KFC-logo-2006.jpg"
    },
    {
      "id": 9,
      "name": "Telepizza",
      "image": "https://descuentos.reaj.com/wp-content/uploads/2015/10/logo_telepizza.jpg"
    },
    {
      "id": 10,
      "name": "Vips",
      "image": "https://marcaporhombro.com/wp-content/uploads/2018/02/logo-vips.jpg"
    },
    {
      "id": 11,
      "name": "Ginos",
      "image": "https://style.shockvisual.net/wp-content/uploads/2020/06/ginos.png"
    },
    {
      "id": 12,
      "name": "Brasa y Leña",
      "image": "https://encrypted-tbn0.gstatic.com/images?q=tbn:ANd9GcSmyUzieV2Ounb_NRZeD3WYJalhAvL_-dSN2Q&usqp=CAU"
    },
    {
      "id": 13,
      "name": "Tommy Mels",
      "image": "https://www.emprendedores.es/wp-content/uploads/2014/09/tommy-mel-s-1024x677.png"
    },
    {
      "id": 14,
      "name": "Goiko Grill",
      "image": "https://lifestyle.fit/app/uploads/2018/05/comer-saludable-goiko-grill-750x400.jpg"
    },
    {
      "id": 15,
      "name": "Muerde la pasta",
      "image": "https://torrecardenas.com/uploads/tiendas/small/9523_pasta.jpg"
    }
  ],
  "shoppingList": [
    {
      "id": 1,
      "name": "Zara",
      "image": "https://i.pinimg.com/originals/bf/46/1e/bf461ebda95c90e3fc62e0e2c4462295.jpg",
      "tienda": "https://www.zara.com/"
    },
    {
      "id": 2,
      "name": "HyM",
      "image": "http://www.hm.com/entrance/assets/bundle/img/HM-Share-Image.jpg",
      "tienda": "https://www2.hm.com/es_es/index.html"
    },
    {
      "id": 3,
      "name": "Jack&Jones",
      "image": "https://uh.gsstatic.es/sfAttachPlugin/1017.jpg",
      "tienda": "https://www.jackjones.com/es/es/home?msclkid=3fe1498ef7de1a6281d31641b507679c&utm_source=bing&utm_medium=cpc&utm_campaign=Brand%20-%20Jack%20%26%20Jones%20-%20ES%20-%20Search%20-%20Branded&utm_term=jackandjones%20com&utm_content=1.%20Brand%20EX&gclid=CN6E6u-Evu0CFWlBHQkdFX8Jog&gclsrc=ds"
    },
    {
      "id": 4,
      "name": "Mango",
      "image": "https://i.pinimg.com/originals/2f/ad/66/2fad6609cfee67240cc94a0810d478a8.jpg",
      "tienda": "https://shop.mango.com/es"
    },
    {
      "id": 5,
      "name": "C&A",
      "image": "https://www.teck-center.de/wp-content/uploads/teck-center-c-und-a-logo.jpg",
      "tienda": "https://www.c-and-a.com/es/es/shop/mujer-colecciones"
    },
    {
      "id": 6,
      "name": "Pull and Bear",
      "image": "https://www.apestan.com/content_files/case_attached_images/bb1f2d0d383d56ed028b510075a5ab28.jpg",
      "tienda": "https://www.pullandbear.com/es/mujer/promociones-c1010131045.html?&utm_source=bing&utm_medium=cpc&utm_campaign=111%20B%3A%20Pull%20%26%20Bear%20-%20Marca%20Pura&utm_term=pull%26bear&utm_content=Pull%26Bear%20-%20Exacta&gclid=5b0ad6d9411b19edc3fe8916053ffb97&gclsrc=3p.ds"
    },
    {
      "id": 7,
      "name": "Foot Locker",
      "image": "http://freebies2deals.com/wp-content/uploads/2013/06/freebies2deals-footlocker-logo.jpg",
      "tienda": "https://www.footlocker.es/es/?_cclid=v3_b95e00ad-786d-51f3-8a82-87fe6279c81d"
    },
    {
      "id": 8,
      "name": "JD",
      "image": "https://www.nme.com/discount-codes/vfiles/13/merchant_image-merchant_open_graph.png",
      "tienda": "https://www.jdsports.es/?msclkid=96278a7fc6501803196ed5b082306119&utm_source=bing&utm_medium=cpc&utm_campaign=ES%20%7C%20Brand%20%7C%20EM&utm_term=jd&utm_content=Brand%20%7C%20jd%20sports%20%7C%20EM&gclid=CJX8i6qGvu0CFXOlhQodUuMNUQ&gclsrc=ds"
    },
    {
      "id": 9,
      "name": "Primark",
      "image": "https://customerservicecontactnumber.uk/wp-content/uploads/2017/04/PrimarkLogo.jpg",
      "tienda": "https://www.primark.com/es"
    },
    {
      "id": 10,
      "name": "Sprinter",
      "image": "https://1.bp.blogspot.com/-vH01pDej9Dg/VuYC29SqQcI/AAAAAAAAAGk/4X2ej42cjP0pT8s70hT2pREHVQuy2P7QQ/s1600/sprinter.jpg",
      "tienda": "https://www.sprintersports.com/?msclkid=3a7895fedc1219dc9691ca3198821216&utm_source=bing&utm_medium=cpc&utm_campaign=SS-COM_SEA_SPR_MARCA_EXACTA&utm_term=sprinter&utm_content=Marca%20exacta"
    },
    {
      "id": 11,
      "name": "El Corte Inglés",
      "image": "https://i0.wp.com/marcaporhombro.com/wp-content/uploads/2012/02/corte.jpg?resize=625%2C307",
      "tienda": "https://www.elcorteingles.es/"
    },
    {
      "id": 12,
      "name": "Forever 21",
      "image": "https://imgix.bustle.com/uploads/image/2017/11/22/74efac11-0797-4f13-925a-e2c205ac50a1-forever-21-logo-1.jpg?w=998&h=598&fit=crop&crop=faces&auto=format&q=70",
      "tienda": "https://www.forever21.com/"
    },
    {
      "id": 13,
      "name": "Adidas",
      "image": "https://i.ytimg.com/vi/ZWYiN82mHKU/maxresdefault.jpg",
      "tienda": "https://www.adidas.es/"
    },
    {
      "id": 14,
      "name": "Nike",
      "image": "https://eure-et-loir.fff.fr/wp-content/uploads/sites/41/fff-partenaires/Logo_Nike_16.jpg",
      "tienda": "https://www.nike.com/es/?cp=12232308907_search_|nike|361513904|1183075398791626|e|c|ES|pure|73942406520798&gclid=0406bd0ba0bb1097a081e2c4e5a9070c&gclsrc=3p.ds&ds_rl=1252249&msclkid=0406bd0ba0bb1097a081e2c4e5a9070c&gclid=0406bd0ba0bb1097a081e2c4e5a9070c&gclsrc=3p.ds"
    },
    {
      "id": 15,
      "name": "Sephora",
      "image": "http://tous-logos.com/wp-content/uploads/2018/02/logo-Sephora.jpg",
      "tienda": "https://www.sephora.es/"
    }
  ],
  "shoppingDetail": [
    {
      "id": 1,
      "name": "Zara",
      "image1": "https://galicia.economiadigital.es/uploads/s1/10/15/62/0/Zara%20Juan%20Fl%C3%B3rez.jpg",
      "image2": "https://st3.idealista.com/news/archivos/styles/news_detail/public/2019-03/inditex.png?sv=bHybxy0W&itok=Gw3Xu3Dc",
      "history": "En 1975 Amancio Ortega, fundador de Inditex, abrió la primera tienda Zara en A Coruña, cerca de las fábricas situadas en la cercana localidad de Arteixo, donde vendía ropa de mujer, hombre y niño. Primeramente, Ortega nombró a su tienda Zorba después de ver la clásica película Zorba el Griego, pero después de enterarse que había un bar con el mismo nombre dos calles más abajo reorganizaron las letras moldeadas para que el letrero dijera “Zara”.Durante los años 80, Amancio Ortega cambió todo la cadena de fabricación de la ropa: el diseño, la fabricación y el proceso de distribución para reducir los plazos de entrega y poder así reaccionar a las nuevas tendencias de una manera más rápida. A esto es lo que hoy en día denominamos “moda instantánea”, un concepto que suponía cambiar las colecciones de Zara cada semana en lugar de cada tres meses (como lo hacía usualmente otros minoristas), lo que a su vez hacía que la variedad de piezas fuera prácticamente infinita e invitaba a los consumidores a adquirir mucho más en un lapso corto de tiempo. Las mejoras incluyeron además el uso de tecnologías de la información y el uso de grupos de diseñadores en lugar de individuos."
    },
    {
      "id": 2,
      "name": "HyM",
      "image1": "http://www.hm.com/entrance/assets/bundle/img/HM-Share-Image.jpg",
      "image2": "http://www.hm.com/entrance/assets/bundle/img/HM-Share-Image.jpg",
      "history": "En 1947, Erling Persson inaugura una tienda de ropa para mujer con precios asequibles en la ciudad sueca de Västerås. La tienda se llamaba Hennes, es decir, «Para ella». Años más tarde, se fusionó una tienda de artículos para hombre llamada Mauritz Widforss y nació Hennes & Mauritz; esto es, H&M.Durante las décadas de 1960, 1970 y 1980 se inauguraron las primeras tiendas H&M en Dinamarca, Noruega, Alemania y el Reino Unido. En los años noventa inició un fuerte periodo de expansión, inaugurando sus primeras tiendas en Francia y creciendo en sus antiguos mercados. En 2000 hizo su entrada en el mercado español y estadounidense. Seis años más tarde inauguró tiendas en Dubái y Kuwait y, en 2007, la compañía entró en el mercado asiático estableciendo puntos de venta en Shanghái y Hong Kong, seguidas de Tokio en 2008. La primera tienda en el mercado ruso se abrió en 2009, exactamente, en Moscú. En 2010, abrió sus primeras tiendas en Corea del Sur, Israel y Turquía y finalmente en 2017 tuvo una vasta expansión en Bogotá con dos tiendas de 6000m2 y 3800m2 la primera es considerada la tienda de H&M más grande del mundo. En 2015 abrio su primera tienda en Perú en el Jockey Plaza. En octubre de 2018 abrió su primera tienda en Montevideo y un año más tarde en marzo abre su segunda tienda en la ciudad.3​ En junio de 2019 abrió su tienda N° 5000 en Centro Comercial CentroMayor al sur de Bogotá. En 2020 abrieron dos tiendas mas en Perú en el centro comercial Minka en el Callao y otra en el Mall Aventura Chiclayo con esto suman 16 tiendas en Perú"
    },
    {
      "id": 3,
      "name": "Jack&Jones",
      "image1": "https://uh.gsstatic.es/sfAttachPlugin/1017.jpg",
      "image2": "https://uh.gsstatic.es/sfAttachPlugin/1017.jpg",
      "history": "Hace más de un cuarto de siglo, nos propusimos conquistar el mundo. No éramos más que unos cuantos chicos con nuestra primera colección de vaqueros y una innegable pasión por el mundo del denim. Si bien el paso de los años ha hecho que solo quede uno de esos chicos de los comienzos y la devoción por los vaqueros, nuestro equipo ha ido creciendo por el camino y dando la bienvenida a muchos nuevos miembros. Y sí, somos conscientes de que un armario masculino necesita mucho más que un buen par de vaqueros. Por ello, ofrecemos asimismo una amplia gama de ropa deportiva y urbana, prendas clásicas de estilo informal, impecables trajes de vestir, complementos y calzado. En definitiva, tenemos todo lo que necesitas para cubrirte las espaldas, estilísticamente hablando, en cualquier tipo de ocasión. Y es por esto que nos consideramos como mucho más que una simple marca. Somos una hermandad, un club, una comunidad consolidada por el denim. Y en esa comunidad tenemos un objetivo: «estar ahí» para nuestros chicos. Nuestro universo está libre de imprevistos y decepciones, es más, podríamos definirlo como una forma de hacer que cada compra se desarrolle más fácil y de la mejor manera posible. Se trata de excelentes vaqueros cargados de buenas vibraciones. Y es precisamente esta filosofía la que se esconde detrás de nuestra marca."
    },
    {
      "id": 4,
      "name": "Mango",
      "image1": "https://i.pinimg.com/originals/2f/ad/66/2fad6609cfee67240cc94a0810d478a8.jpg",
      "image2": "https://i.pinimg.com/originals/2f/ad/66/2fad6609cfee67240cc94a0810d478a8.jpg",
      "history": "En el año 2000, puso a disposición de los usuarios su primera tienda en línea,​ a través de la cual actualmente comercializa toda su gama de productos en los estados miembros de la Unión Europea, así como en EE.UU, Canadá, Turquía, Rusia, China y Japón. La firma cuenta con más de 15.000 empleados en el 2019,​ 1850 de los cuales trabajan en el Hangar Design Center y en la sede de Palau de Plegamans (Provincia de Barcelona) desde done se diseñan cada año más de 18.000 prendas y accesorios. La compañía dispone de una extensa red de tiendas (más de 800.000 m²) distribuidas en más de 110 países. Sus trabajadores tienen una media de edad en torno a los 30 años y formado en un 80% por mujeres. "
    },
    {
      "id": 5,
      "name": "C&A",
      "image1": "https://www.teck-center.de/wp-content/uploads/teck-center-c-und-a-logo.jpg",
      "image2": "https://www.teck-center.de/wp-content/uploads/teck-center-c-und-a-logo.jpg",
      "history": "El 1881 se abrió una sucursal en Leeuwarden (Países Bajos) y en 1893 C&A abrió una nueva sucursal en Ámsterdam (Países Bajos). Por muchos años C&A tuvo importante presencia en los sectores altos del Reino Unido. Sin embargo, la estrategia de la compañía de vender ropa estándar costosa la hizo vulnerable a competidores más baratos. En 2000, C&A anunció su intención de abandonar el mercado británico y cerrar sus locales en 2001. La compañía tuvo similares problemas en Europa, y recientemente trató de reinventarse, mejorando calidad, bajando costos y mostrándose una imagen accesible a los bajos presupuestos familiares. Irónicamente, la cadena Primark ha sido un éxito en recrear la política empresarial que hizo fuerte en el pasado a C&A. Esto fue posible debido a la imagen establecida de la marca C&A, que intentó sobrevivir, y finalmente lo ha conseguido. "
    },
    {
      "id": 6,
      "name": "Pull and Bear",
      "image1": "https://www.apestan.com/content_files/case_attached_images/bb1f2d0d383d56ed028b510075a5ab28.jpg",
      "image2": "https://www.apestan.com/content_files/case_attached_images/bb1f2d0d383d56ed028b510075a5ab28.jpg",
      "history": "Pull&Bear (literalmente en inglés Tirar y Llevar) es una cadena de moda joven que está englobada en el grupo Inditex. Sus oficinas centrales se encuentran en Narón, A Coruña, España. Pull&Bear está presente en 74 mercados con una red de más de 970 tiendas. La cadena nace en 1991 debido a la diversificación de objetivo comercial de Inditex, que en esos momentos solo contaba con las tiendas Zara. Empezó siendo una marca solo para el público masculino, pero al cabo de unos años de su creación introdujo una colección para chicas en 1998 que ha igualado en ventas a la línea masculina. "
    },
    {
      "id": 7,
      "name": "Foot Locker",
      "image1": "http://freebies2deals.com/wp-content/uploads/2013/06/freebies2deals-footlocker-logo.jpg",
      "image2": "http://freebies2deals.com/wp-content/uploads/2013/06/freebies2deals-footlocker-logo.jpg",
      "history": "En 1963 el grupo Woolworth compró una empresa dedicada al calzado, Kinney Shoe Corporation, que convirtió en una filial. De esta compañía surgieron tiendas de calzado especializadas, entre las cuales se encontraba la dedicada a calzado y ropa deportiva, Foot Locker, en 1974. Ese mismo año abre su primera tienda en California. La marca comenzó pronto a expandirse por todo Estados Unidos e incluso inició operaciones en Europa en la década de 1980. Esto chocaba sin embargo con el declive de su propietaria Woolworth, que empezó a cerrar varias de sus tiendas por todo el país. Las operaciones de Foot Locker pasaron a ser controladas por una entidad llamada Woolworth Company, que con la quiebra de la matriz en 1997 pasó a ser Venator Group, y Foot Locker se convirtió en la principal empresa de calzado del grupo Kinney. En 1998, Venator anuncia el cierre de todas las antiguas tiendas de Kinney, lo que convierte a Foot Locker en la empresa principal del grupo, y en 2001 el propio grupo cambió su nombre por el de Foot Locker Inc. "
    },
    {
      "id": 8,
      "name": "JD",
      "image1": "https://www.nme.com/discount-codes/vfiles/13/merchant_image-merchant_open_graph.png",
      "image2": "https://www.nme.com/discount-codes/vfiles/13/merchant_image-merchant_open_graph.png",
      "history": "Las letras JD en JD Sports representan las iniciales de los fundadores de la empresa, John & David. En 1981, la empresa fue fundada por John Wardle y David Makin, que comerciaban en una única tienda en Bury, Greater Manchester. En 1983, la empresa abrió una tienda en el Arndale Centre de Manchester. En diciembre de 2001 adquirió casi 200 tiendas más con la adquisición de First Sport de Blacks Leisure Group. En enero de 2011, JD Sports adquirió Champion Sports por 19,6 millones de euros. En enero de 2012, JD Sports compró a la administración el atribulado Blacks Leisure Group por un total de £ 20 millones. En febrero de 2012, JD Sports adquirió la marca de ropa de calle FLY53, por una suma no revelada. El mismo año, JD Sports adquirió una participación del 40% en el minorista de moda Tessuti , antes de adquirir la marca en su totalidad en 2016. En febrero de 2013, compró Cloggs , un minorista de calzado, fuera de la administración, pero lo cerró en 2018."
    },
    {
      "id": 9,
      "name": "Primark",
      "image1": "https://customerservicecontactnumber.uk/wp-content/uploads/2017/04/PrimarkLogo.jpg",
      "image2": "https://customerservicecontactnumber.uk/wp-content/uploads/2017/04/PrimarkLogo.jpg",
      "history": "En 1969 se abrió la primera tienda del grupo en Mary Street de Dublín, con el nombre de Penneys. En menos de un año se inauguraron cuatro locales más en la capital irlandesa, y en 1971 se abrió el primero en Cork. Dos años después llegó a Reino Unido bajo la marca Primark. En 2000 aprovechó la retirada de C&A del mercado británico para adquirir sus locales, lo que le ayudó a superar los 100 establecimientos. Desde 2006 ha iniciado un plan de expansión internacional en Europa, que comenzó con la inauguración de una tienda en un centro comercial en Torrejón de Ardoz, (Madrid, España).​ En 2009 ha abierto negocios en Portugal, Países Bajos, Alemania y Bélgica.6​ Actualmente la marca Penneys se utiliza solo en la República de Irlanda, mientras que en el resto de países se llama Primark. En 2009 el fundador Arthur Ryan abandonó la compañía y se emprendió una renovación en todos sus cargos directivos."
    },
    {
      "id": 10,
      "name": "Sprinter",
      "image1": "https://1.bp.blogspot.com/-vH01pDej9Dg/VuYC29SqQcI/AAAAAAAAAGk/4X2ej42cjP0pT8s70hT2pREHVQuy2P7QQ/s1600/sprinter.jpg",
      "image2": "https://1.bp.blogspot.com/-vH01pDej9Dg/VuYC29SqQcI/AAAAAAAAAGk/4X2ej42cjP0pT8s70hT2pREHVQuy2P7QQ/s1600/sprinter.jpg",
      "history": "La primera tienda de Sprinter se abrió en 1976 en Lille (Francia). Diez años más tarde, la empresa abrió tiendas en Alemania y en 1992 abrió su primera tienda en España con motivo de los Juegos Olímpicos de Barcelona. El lugar escogido para situar la primera tienda en el país ibérico fue el barrio badalonés de Montigalá, por ser Badalona subsede olímpica. En 1999, Sprinter llegó al Reino Unido y a Estados Unidos. En este último, la empresa compró la cadena MVP -por aquel entonces con veinte tiendas deportivas- y se llamó Sprinter. Cuatro años más tarde, en 2003, una reestructuración llevó a cerrar cuatro tiendas en Massachusetts y en 2006 Decathlon anunció que cerraría sus tiendas en Estados Unidos ese mismo año. En 2017 regresó al país abriendo una tienda en San Francisco.3​ En 2016 abrió sus primeras dos tiendas en México4​ y en 2018 abrió su primera tienda en Canadá, en la localidad de Montreal, y en 2019 abrirá otra más en Quebec. En 2002 también se retiró de Argentina por razones de seguridad, ligados a la crisis económica (contaba con una tienda desde el año 2000), y en marzo de 2002 hizo lo propio en Dinamarca por mal posicionamiento geográfico de su única tienda."
    },
    {
      "id": 11,
      "name": "El Corte Inglés",
      "image1": "https://i0.wp.com/marcaporhombro.com/wp-content/uploads/2012/02/corte.jpg?resize=625%2C307",
      "image2": "https://i0.wp.com/marcaporhombro.com/wp-content/uploads/2012/02/corte.jpg?resize=625%2C307",
      "history": "El Corte Inglés era una pequeña tienda en la calle Preciados de Madrid, con esquina a las calles Carmen y Rompelanzas, dedicada a la sastrería y confección para niños que había sido fundada en 18905​ y que gozaba de cierto prestigio. La propiedad del inmueble, y de la tienda que se encontraba en sus bajos, era desde 1930 de Julián Gordo Centenera. La idea que tenía en mente era la de ir comprando todos los inmuebles de dicha manzana para levantar sobre ella un edificio de nueva planta que albergara su establecimiento, lo que posteriormente hizo realidad con el nombre definitivo de Galerías Preciados.Es la competencia entre El Corte Inglés y Galerías Preciados, a partir de las décadas cincuenta y sesenta, la que producirá una revolución en el mercado de la distribución española, introduciendo las rebajas de temporada (Rebajas de enero), las campañas publicitarias (Ya es primavera en El Corte Inglés), el aire acondicionado en la tienda, el uso masivo de la publicidad, la introducción del escaparatismo a gran escala, las tarjetas de compras, la informatización del punto de venta, etc."
    },
    {
      "id": 12,
      "name": "Forever 21",
      "image1": "https://imgix.bustle.com/uploads/image/2017/11/22/74efac11-0797-4f13-925a-e2c205ac50a1-forever-21-logo-1.jpg?w=998&h=598&fit=crop&crop=faces&auto=format&q=70",
      "image2": "https://imgix.bustle.com/uploads/image/2017/11/22/74efac11-0797-4f13-925a-e2c205ac50a1-forever-21-logo-1.jpg?w=998&h=598&fit=crop&crop=faces&auto=format&q=70",
      "history": "Comenzó como una pequeña tienda en la manzana 900 de Los Ángeles en 21 de abril de 1984, y en la actualidad posee cerca de 600 tiendas internacionales, bajo las marcas Forever 21, XXI Forever, Love 21, y Heritage 1981 en América, Asia, el Medio Oriente, y el Reino Unido, paralelamente a un sitio de compras en línea, por lo que ha experimentado un crecimiento enorme. Más del 60% de sus prendas son fabricadas en China. En 2012 contaba con 30.000 empleados. Según Adrienne Tennant, analista en Wedbush Morgan Securities, y Andrea Chang de Los Angeles Times, Forever 21 se caracteriza por ofrecer productos de moda. Sus productos destinados a niños, mujeres y hombres incluyen accesorios y productos de belleza. "
    },
    {
      "id": 13,
      "name": "Adidas",
      "image1": "https://i.ytimg.com/vi/ZWYiN82mHKU/maxresdefault.jpg",
      "image2": "https://i.ytimg.com/vi/ZWYiN82mHKU/maxresdefault.jpg",
      "history": "La empresa Adidas, fundada en enero de 1949, tiene sus orígenes en las empresas previas de la familia Dassler: la llamada «Gebrüder Dassler Schuhfabrik», fundada a principios de la década de 1920 en Alemania por Adolf Dassler junto con su hermano Rudolf Dassler. Confeccionaban zapatillas y pantuflas sin marca adquirida, y también calzado con clavos para deportistas. Adi era el artista introvertido y Rudi el encargado de relaciones públicas. Ambos lograron colocar sus productos en el equipo alemán de atletismo. Pero el golpe maestro fue fichar a Jesse Owens, el atleta que deslumbró en los Juegos Olímpicos de Berlín 1936. Ese año, Dassler persuadió al velocista estadounidense para usar sus clavos hechos a mano en los Juegos Olímpicos. Después de las cuatro medallas de oro de Owens, el nombre y la reputación de los zapatos Dassler se hicieron conocidos por los deportistas del mundo y sus entrenadores. Los negocios tuvieron éxito y los Dassler vendían 200 000 pares de zapatos cada año antes de la Segunda Guerra Mundial."
    },
    {
      "id": 14,
      "name": "Nike",
      "image1": "https://eure-et-loir.fff.fr/wp-content/uploads/sites/41/fff-partenaires/Logo_Nike_16.jpg",
      "image2": "https://eure-et-loir.fff.fr/wp-content/uploads/sites/41/fff-partenaires/Logo_Nike_16.jpg",
      "history": "Fue fundada por el deportista de la Universidad de Oregón Phil Knight y su entrenador, William Jay Bowerman. La empresa comenzó distribuyendo calzado de la firma Onitsuka Tiger (actualmente ASICS) hasta 1971, cuando BRS lanzó su primer producto propio, con el emblema de la marca diseñado por Carolyn Davidson. En 1964, en su primer año en el negocio, BRS vendió 1300 pares de zapatos para correr ganando en total 8000 $. Antes de 1965 la nueva compañía había adquirido un empleado a tiempo completo, y las ventas habían alcanzado los 20.000 $. En 1966, El BRS abrió su primera tienda ubicada en el 3456 Bulevar en Santa Mónica, California, junto a un salón de belleza. En 1967, debido al rápido aumento de las ventas, el BRS expandió sus operaciones al por menor y distribución en la costa este, en Wellesley, Massachusetts. En 1976, la compañía contrató a John Brown and Partners, con sede en Seattle, como su primera agencia de publicidad. Al año siguiente, la agencia creó el primer anuncio de marca de Nike, llamado No hay línea de meta, en el que no se mostró ningún producto de Nike. En 1980, Nike había alcanzado una cuota de mercado del 50% en el mercado de calzado deportivo de Estados Unidos, y la compañía se hizo pública en diciembre de ese año. "
    },
    {
      "id": 15,
      "name": "Sephora",
      "image1": "http://tous-logos.com/wp-content/uploads/2018/02/logo-Sephora.jpg",
      "image2": "http://tous-logos.com/wp-content/uploads/2018/02/logo-Sephora.jpg",
      "history": "En 1999, Sephora inauguró su tienda en línea Sephora.com disponible en 9 países. Sephora es una combinación de sephos, que en griego significa belleza y la versión griega de Tzipporah (ציפורה), que significa pájaro (hembra) en hebreo, y era el nombre de la esposa de Moisés en el Éxodo. El iso de Sephora es una llama vertical alargada en un fondo negro. La cadena de cosméticos lanzó su propia marca para el maquillaje, productos del baño, entre otros productos de belleza. SEPHORA es el principal distribuidor de los cosméticos AHAVA. La marca SEPHORA comercializa sus propios productos made in France. Tiene tiendas en toda España y en los almacenes el Corte Inglés. En abril de 2006, Sephora se alió con JCPenney para vender cosméticos en sus almacenes. La versión de Sephora en JCPenney será según el concepto una tienda en otra tienda. "
    }
  ]
}